<svg id="best" xmlns="http://www.w3.org/2000/svg" width="2520" height="60" viewBox="0 0 2520 60">
  <metadata><?xpacket begin="﻿" id="W5M0MpCehiHzreSzNTczkc9d"?>
<x:xmpmeta xmlns:x="adobe:ns:meta/" x:xmptk="Adobe XMP Core 5.6-c142 79.160924, 2017/07/13-01:06:39        ">
   <rdf:RDF xmlns:rdf="http://www.w3.org/1999/02/22-rdf-syntax-ns#">
      <rdf:Description rdf:about=""/>
   </rdf:RDF>
</x:xmpmeta>
                                                                                                    
                                                                                                    
                                                                                                    
                                                                                                    
                                                                                                    
                                                                                                    
                                                                                                    
                                                                                                    
                                                                                                    
                                                                                                    
                                                                                                    
                                                                                                    
                                                                                                    
                                                                                                    
                                                                                                    
                                                                                                    
                                                                                                    
                                                                                                    
                                                                                                    
                                                                                                    
                           
<?xpacket end="w"?></metadata>
<defs>
    <style>
      .cls-1 {
        fill: none;
        stroke: #282a30;
        stroke-width: 2px;
      }

      .cls-2 {
        font-size: 12.019px;
        fill: #282a30;
      }

      .cls-2, .cls-4, .cls-5 {
        text-anchor: middle;
        font-family: Montserrat;
        font-weight: 600;
      }

      .cls-3 {
        fill: #f8bf60;
      }

      .cls-4 {
        font-size: 10.817px;
      }

      .cls-5 {
        font-size: 7.813px;
      }
    </style>
  </defs>
  <g>
    <g id="Back_2_copy_19" data-name="Back 2 copy 19">
      <rect id="Rectangle_940_copy_15" data-name="Rectangle 940 copy 15" class="cls-1" x="59" width="1" height="60"/>
      <rect id="Rectangle_940_copy_18" data-name="Rectangle 940 copy 18" class="cls-1" width="1" height="60"/>
      <rect id="Rectangle_940_copy_16" data-name="Rectangle 940 copy 16" class="cls-1" width="60" height="2"/>
      <rect id="Rectangle_940_copy_19" data-name="Rectangle 940 copy 19" class="cls-1" y="58" width="60" height="2"/>
      <text id="back" class="cls-2" transform="translate(30.413 36.446) scale(1.386 1.387)"><tspan x="0">back</tspan></text>
    </g>
    <g id="Back_2_copy_20" data-name="Back 2 copy 20">
      <rect id="Rectangle_940_copy_15-2" data-name="Rectangle 940 copy 15" class="cls-1" x="119" width="1" height="60"/>
      <rect id="Rectangle_940_copy_18-2" data-name="Rectangle 940 copy 18" class="cls-1" x="60" width="1" height="60"/>
      <rect id="Rectangle_940_copy_16-2" data-name="Rectangle 940 copy 16" class="cls-1" x="60" width="60" height="2"/>
      <rect id="Rectangle_940_copy_19-2" data-name="Rectangle 940 copy 19" class="cls-1" x="60" y="58" width="60" height="2"/>
      <text id="back-2" data-name="back" class="cls-2" transform="translate(90.413 36.446) scale(1.386 1.387)"><tspan x="0">back</tspan></text>
    </g>
    <g id="Back_2_copy_21" data-name="Back 2 copy 21">
      <rect id="Rectangle_940_copy_15-3" data-name="Rectangle 940 copy 15" class="cls-1" x="179" width="1" height="60"/>
      <rect id="Rectangle_940_copy_18-3" data-name="Rectangle 940 copy 18" class="cls-1" x="120" width="1" height="60"/>
      <rect id="Rectangle_940_copy_16-3" data-name="Rectangle 940 copy 16" class="cls-1" x="120" width="60" height="2"/>
      <rect id="Rectangle_940_copy_19-3" data-name="Rectangle 940 copy 19" class="cls-1" x="120" y="58" width="60" height="2"/>
      <text id="back-3" data-name="back" class="cls-2" transform="translate(150.413 36.446) scale(1.386 1.387)"><tspan x="0">back</tspan></text>
    </g>
    <g id="Back_2_copy_21-2" data-name="Back 2 copy 21">
      <rect id="Rectangle_940_copy_15-4" data-name="Rectangle 940 copy 15" class="cls-1" x="239" width="1" height="60"/>
      <rect id="Rectangle_940_copy_18-4" data-name="Rectangle 940 copy 18" class="cls-1" x="180" width="1" height="60"/>
      <rect id="Rectangle_940_copy_16-4" data-name="Rectangle 940 copy 16" class="cls-1" x="180" width="60" height="2"/>
      <rect id="Rectangle_940_copy_19-4" data-name="Rectangle 940 copy 19" class="cls-1" x="180" y="58" width="60" height="2"/>
      <text id="back-4" data-name="back" class="cls-2" transform="translate(210.413 36.446) scale(1.386 1.387)"><tspan x="0">back</tspan></text>
    </g>
    <g id="Back_2_copy_22" data-name="Back 2 copy 22">
      <rect id="Rectangle_940_copy_15-5" data-name="Rectangle 940 copy 15" class="cls-1" x="299" width="1" height="60"/>
      <rect id="Rectangle_940_copy_18-5" data-name="Rectangle 940 copy 18" class="cls-1" x="240" width="1" height="60"/>
      <rect id="Rectangle_940_copy_16-5" data-name="Rectangle 940 copy 16" class="cls-1" x="240" width="60" height="2"/>
      <rect id="Rectangle_940_copy_19-5" data-name="Rectangle 940 copy 19" class="cls-1" x="240" y="58" width="60" height="2"/>
      <text id="back-5" data-name="back" class="cls-2" transform="translate(270.414 36.446) scale(1.386 1.387)"><tspan x="0">back</tspan></text>
    </g>
    <g id="Back_2_copy_22-2" data-name="Back 2 copy 22">
      <rect id="Rectangle_940_copy_15-6" data-name="Rectangle 940 copy 15" class="cls-1" x="359" width="1" height="60"/>
      <rect id="Rectangle_940_copy_18-6" data-name="Rectangle 940 copy 18" class="cls-1" x="300" width="1" height="60"/>
      <rect id="Rectangle_940_copy_16-6" data-name="Rectangle 940 copy 16" class="cls-1" x="300" width="60" height="2"/>
      <rect id="Rectangle_940_copy_19-6" data-name="Rectangle 940 copy 19" class="cls-1" x="300" y="58" width="60" height="2"/>
      <text id="back-6" data-name="back" class="cls-2" transform="translate(330.412 36.446) scale(1.386 1.387)"><tspan x="0">back</tspan></text>
    </g>
    <g id="Back_2_copy_22-3" data-name="Back 2 copy 22">
      <rect id="Rectangle_940_copy_15-7" data-name="Rectangle 940 copy 15" class="cls-1" x="419" width="1" height="60"/>
      <rect id="Rectangle_940_copy_18-7" data-name="Rectangle 940 copy 18" class="cls-1" x="360" width="1" height="60"/>
      <rect id="Rectangle_940_copy_16-7" data-name="Rectangle 940 copy 16" class="cls-1" x="360" width="60" height="2"/>
      <rect id="Rectangle_940_copy_19-7" data-name="Rectangle 940 copy 19" class="cls-1" x="360" y="58" width="60" height="2"/>
      <text id="back-7" data-name="back" class="cls-2" transform="translate(390.414 36.446) scale(1.386 1.387)"><tspan x="0">back</tspan></text>
    </g>
    <g id="Back_2_copy_23" data-name="Back 2 copy 23">
      <rect id="Rectangle_940_copy_15-8" data-name="Rectangle 940 copy 15" class="cls-1" x="479" width="1" height="60"/>
      <rect id="Rectangle_940_copy_18-8" data-name="Rectangle 940 copy 18" class="cls-1" x="420" width="1" height="60"/>
      <rect id="Rectangle_940_copy_16-8" data-name="Rectangle 940 copy 16" class="cls-1" x="420" width="60" height="2"/>
      <rect id="Rectangle_940_copy_19-8" data-name="Rectangle 940 copy 19" class="cls-1" x="420" y="58" width="60" height="2"/>
      <text id="back-8" data-name="back" class="cls-2" transform="translate(450.412 36.446) scale(1.386 1.387)"><tspan x="0">back</tspan></text>
    </g>
    <g id="Back_2_copy_23-2" data-name="Back 2 copy 23">
      <rect id="Rectangle_940_copy_15-9" data-name="Rectangle 940 copy 15" class="cls-1" x="539" width="1" height="60"/>
      <rect id="Rectangle_940_copy_18-9" data-name="Rectangle 940 copy 18" class="cls-1" x="480" width="1" height="60"/>
      <rect id="Rectangle_940_copy_16-9" data-name="Rectangle 940 copy 16" class="cls-1" x="480" width="60" height="2"/>
      <rect id="Rectangle_940_copy_19-9" data-name="Rectangle 940 copy 19" class="cls-1" x="480" y="58" width="60" height="2"/>
      <text id="back-9" data-name="back" class="cls-2" transform="translate(510.413 36.446) scale(1.386 1.387)"><tspan x="0">back</tspan></text>
    </g>
    <g id="Back_2_copy_23-3" data-name="Back 2 copy 23">
      <rect id="Rectangle_940_copy_15-10" data-name="Rectangle 940 copy 15" class="cls-1" x="599" width="1" height="60"/>
      <rect id="Rectangle_940_copy_18-10" data-name="Rectangle 940 copy 18" class="cls-1" x="540" width="1" height="60"/>
      <rect id="Rectangle_940_copy_16-10" data-name="Rectangle 940 copy 16" class="cls-1" x="540" width="60" height="2"/>
      <rect id="Rectangle_940_copy_19-10" data-name="Rectangle 940 copy 19" class="cls-1" x="540" y="58" width="60" height="2"/>
      <text id="back-10" data-name="back" class="cls-2" transform="translate(570.412 36.446) scale(1.386 1.387)"><tspan x="0">back</tspan></text>
    </g>
    <g id="Back_2_copy_23-4" data-name="Back 2 copy 23">
      <rect id="Rectangle_940_copy_15-11" data-name="Rectangle 940 copy 15" class="cls-1" x="659" width="1" height="60"/>
      <rect id="Rectangle_940_copy_18-11" data-name="Rectangle 940 copy 18" class="cls-1" x="600" width="1" height="60"/>
      <rect id="Rectangle_940_copy_16-11" data-name="Rectangle 940 copy 16" class="cls-1" x="600" width="60" height="2"/>
      <rect id="Rectangle_940_copy_19-11" data-name="Rectangle 940 copy 19" class="cls-1" x="600" y="58" width="60" height="2"/>
      <text id="back-11" data-name="back" class="cls-2" transform="translate(630.413 36.446) scale(1.386 1.387)"><tspan x="0">back</tspan></text>
    </g>
    <g id="Back_2_copy_23-5" data-name="Back 2 copy 23">
      <rect id="Rectangle_940_copy_15-12" data-name="Rectangle 940 copy 15" class="cls-1" x="719" width="1" height="60"/>
      <rect id="Rectangle_940_copy_18-12" data-name="Rectangle 940 copy 18" class="cls-1" x="660" width="1" height="60"/>
      <rect id="Rectangle_940_copy_16-12" data-name="Rectangle 940 copy 16" class="cls-1" x="660" width="60" height="2"/>
      <rect id="Rectangle_940_copy_19-12" data-name="Rectangle 940 copy 19" class="cls-1" x="660" y="58" width="60" height="2"/>
      <text id="back-12" data-name="back" class="cls-2" transform="translate(690.412 36.446) scale(1.386 1.387)"><tspan x="0">back</tspan></text>
    </g>
    <g id="Back_2_copy_23-6" data-name="Back 2 copy 23">
      <rect id="Rectangle_940_copy_15-13" data-name="Rectangle 940 copy 15" class="cls-1" x="779" width="1" height="60"/>
      <rect id="Rectangle_940_copy_18-13" data-name="Rectangle 940 copy 18" class="cls-1" x="720" width="1" height="60"/>
      <rect id="Rectangle_940_copy_16-13" data-name="Rectangle 940 copy 16" class="cls-1" x="720" width="60" height="2"/>
      <rect id="Rectangle_940_copy_19-13" data-name="Rectangle 940 copy 19" class="cls-1" x="720" y="58" width="60" height="2"/>
      <text id="back-13" data-name="back" class="cls-2" transform="translate(750.413 36.446) scale(1.386 1.387)"><tspan x="0">back</tspan></text>
    </g>
    <g id="Back_2_copy_23-7" data-name="Back 2 copy 23">
      <rect id="Rectangle_940_copy_15-14" data-name="Rectangle 940 copy 15" class="cls-1" x="839" width="1" height="60"/>
      <rect id="Rectangle_940_copy_18-14" data-name="Rectangle 940 copy 18" class="cls-1" x="780" width="1" height="60"/>
      <rect id="Rectangle_940_copy_16-14" data-name="Rectangle 940 copy 16" class="cls-1" x="780" width="60" height="2"/>
      <rect id="Rectangle_940_copy_19-14" data-name="Rectangle 940 copy 19" class="cls-1" x="780" y="58" width="60" height="2"/>
      <text id="back-14" data-name="back" class="cls-2" transform="translate(810.412 36.446) scale(1.386 1.387)"><tspan x="0">back</tspan></text>
    </g>
  </g>
  <g id="Group_9_copy" data-name="Group 9 copy">
    <g id="Back_2_copy_19-2" data-name="Back 2 copy 19">
      <rect id="Rectangle_940_copy_15-15" data-name="Rectangle 940 copy 15" class="cls-1" x="899" width="1" height="60"/>
      <rect id="Rectangle_940_copy_18-15" data-name="Rectangle 940 copy 18" class="cls-1" x="840" width="1" height="60"/>
      <rect id="Rectangle_940_copy_16-15" data-name="Rectangle 940 copy 16" class="cls-1" x="840" width="60" height="2"/>
      <rect id="Rectangle_940_copy_19-15" data-name="Rectangle 940 copy 19" class="cls-1" x="840" y="58" width="60" height="2"/>
      <text id="back-15" data-name="back" class="cls-2" transform="translate(870.413 36.446) scale(1.386 1.387)"><tspan x="0">back</tspan></text>
    </g>
    <g id="Back_2_copy_20-2" data-name="Back 2 copy 20">
      <rect id="Rectangle_940_copy_15-16" data-name="Rectangle 940 copy 15" class="cls-1" x="959" width="1" height="60"/>
      <rect id="Rectangle_940_copy_18-16" data-name="Rectangle 940 copy 18" class="cls-1" x="900" width="1" height="60"/>
      <rect id="Rectangle_940_copy_16-16" data-name="Rectangle 940 copy 16" class="cls-1" x="900" width="60" height="2"/>
      <rect id="Rectangle_940_copy_19-16" data-name="Rectangle 940 copy 19" class="cls-1" x="900" y="58" width="60" height="2"/>
      <text id="back-16" data-name="back" class="cls-2" transform="translate(930.412 36.446) scale(1.386 1.387)"><tspan x="0">back</tspan></text>
    </g>
    <g id="Back_2_copy_21-3" data-name="Back 2 copy 21">
      <rect id="Rectangle_940_copy_15-17" data-name="Rectangle 940 copy 15" class="cls-1" x="1019" width="1" height="60"/>
      <rect id="Rectangle_940_copy_18-17" data-name="Rectangle 940 copy 18" class="cls-1" x="960" width="1" height="60"/>
      <rect id="Rectangle_940_copy_16-17" data-name="Rectangle 940 copy 16" class="cls-1" x="960" width="60" height="2"/>
      <rect id="Rectangle_940_copy_19-17" data-name="Rectangle 940 copy 19" class="cls-1" x="960" y="58" width="60" height="2"/>
      <text id="back-17" data-name="back" class="cls-2" transform="translate(990.413 36.446) scale(1.386 1.387)"><tspan x="0">back</tspan></text>
    </g>
    <g id="Back_2_copy_21-4" data-name="Back 2 copy 21">
      <rect id="Rectangle_940_copy_15-18" data-name="Rectangle 940 copy 15" class="cls-1" x="1079" width="1" height="60"/>
      <rect id="Rectangle_940_copy_18-18" data-name="Rectangle 940 copy 18" class="cls-1" x="1020" width="1" height="60"/>
      <rect id="Rectangle_940_copy_16-18" data-name="Rectangle 940 copy 16" class="cls-1" x="1020" width="60" height="2"/>
      <rect id="Rectangle_940_copy_19-18" data-name="Rectangle 940 copy 19" class="cls-1" x="1020" y="58" width="60" height="2"/>
      <text id="back-18" data-name="back" class="cls-2" transform="translate(1050.412 36.446) scale(1.386 1.387)"><tspan x="0">back</tspan></text>
    </g>
    <g id="Back_2_copy_22-4" data-name="Back 2 copy 22">
      <rect id="Rectangle_940_copy_15-19" data-name="Rectangle 940 copy 15" class="cls-1" x="1139" width="1" height="60"/>
      <rect id="Rectangle_940_copy_18-19" data-name="Rectangle 940 copy 18" class="cls-1" x="1080" width="1" height="60"/>
      <rect id="Rectangle_940_copy_16-19" data-name="Rectangle 940 copy 16" class="cls-1" x="1080" width="60" height="2"/>
      <rect id="Rectangle_940_copy_19-19" data-name="Rectangle 940 copy 19" class="cls-1" x="1080" y="58" width="60" height="2"/>
      <text id="back-19" data-name="back" class="cls-2" transform="translate(1110.413 36.446) scale(1.386 1.387)"><tspan x="0">back</tspan></text>
    </g>
    <g id="Back_2_copy_22-5" data-name="Back 2 copy 22">
      <rect id="Rectangle_940_copy_15-20" data-name="Rectangle 940 copy 15" class="cls-1" x="1199" width="1" height="60"/>
      <rect id="Rectangle_940_copy_18-20" data-name="Rectangle 940 copy 18" class="cls-1" x="1140" width="1" height="60"/>
      <rect id="Rectangle_940_copy_16-20" data-name="Rectangle 940 copy 16" class="cls-1" x="1140" width="60" height="2"/>
      <rect id="Rectangle_940_copy_19-20" data-name="Rectangle 940 copy 19" class="cls-1" x="1140" y="58" width="60" height="2"/>
      <text id="back-20" data-name="back" class="cls-2" transform="translate(1170.411 36.446) scale(1.386 1.387)"><tspan x="0">back</tspan></text>
    </g>
    <g id="Back_2_copy_22-6" data-name="Back 2 copy 22">
      <rect id="Rectangle_940_copy_15-21" data-name="Rectangle 940 copy 15" class="cls-1" x="1259" width="1" height="60"/>
      <rect id="Rectangle_940_copy_18-21" data-name="Rectangle 940 copy 18" class="cls-1" x="1200" width="1" height="60"/>
      <rect id="Rectangle_940_copy_16-21" data-name="Rectangle 940 copy 16" class="cls-1" x="1200" width="60" height="2"/>
      <rect id="Rectangle_940_copy_19-21" data-name="Rectangle 940 copy 19" class="cls-1" x="1200" y="58" width="60" height="2"/>
      <text id="back-21" data-name="back" class="cls-2" transform="translate(1230.413 36.446) scale(1.386 1.387)"><tspan x="0">back</tspan></text>
    </g>
    <g id="Back_2_copy_23-8" data-name="Back 2 copy 23">
      <rect id="Rectangle_940_copy_15-22" data-name="Rectangle 940 copy 15" class="cls-1" x="1319" width="1" height="60"/>
      <rect id="Rectangle_940_copy_18-22" data-name="Rectangle 940 copy 18" class="cls-1" x="1260" width="1" height="60"/>
      <rect id="Rectangle_940_copy_16-22" data-name="Rectangle 940 copy 16" class="cls-1" x="1260" width="60" height="2"/>
      <rect id="Rectangle_940_copy_19-22" data-name="Rectangle 940 copy 19" class="cls-1" x="1260" y="58" width="60" height="2"/>
      <text id="back-22" data-name="back" class="cls-2" transform="translate(1290.414 36.446) scale(1.386 1.387)"><tspan x="0">back</tspan></text>
    </g>
    <g id="Back_2_copy_23-9" data-name="Back 2 copy 23">
      <rect id="Rectangle_940_copy_15-23" data-name="Rectangle 940 copy 15" class="cls-1" x="1379" width="1" height="60"/>
      <rect id="Rectangle_940_copy_18-23" data-name="Rectangle 940 copy 18" class="cls-1" x="1320" width="1" height="60"/>
      <rect id="Rectangle_940_copy_16-23" data-name="Rectangle 940 copy 16" class="cls-1" x="1320" width="60" height="2"/>
      <rect id="Rectangle_940_copy_19-23" data-name="Rectangle 940 copy 19" class="cls-1" x="1320" y="58" width="60" height="2"/>
      <text id="back-23" data-name="back" class="cls-2" transform="translate(1350.413 36.446) scale(1.386 1.387)"><tspan x="0">back</tspan></text>
    </g>
    <g id="Back_2_copy_23-10" data-name="Back 2 copy 23">
      <rect id="Rectangle_940_copy_15-24" data-name="Rectangle 940 copy 15" class="cls-1" x="1439" width="1" height="60"/>
      <rect id="Rectangle_940_copy_18-24" data-name="Rectangle 940 copy 18" class="cls-1" x="1380" width="1" height="60"/>
      <rect id="Rectangle_940_copy_16-24" data-name="Rectangle 940 copy 16" class="cls-1" x="1380" width="60" height="2"/>
      <rect id="Rectangle_940_copy_19-24" data-name="Rectangle 940 copy 19" class="cls-1" x="1380" y="58" width="60" height="2"/>
      <text id="back-24" data-name="back" class="cls-2" transform="translate(1410.414 36.446) scale(1.386 1.387)"><tspan x="0">back</tspan></text>
    </g>
    <g id="Back_2_copy_23-11" data-name="Back 2 copy 23">
      <rect id="Rectangle_940_copy_15-25" data-name="Rectangle 940 copy 15" class="cls-1" x="1499" width="1" height="60"/>
      <rect id="Rectangle_940_copy_18-25" data-name="Rectangle 940 copy 18" class="cls-1" x="1440" width="1" height="60"/>
      <rect id="Rectangle_940_copy_16-25" data-name="Rectangle 940 copy 16" class="cls-1" x="1440" width="60" height="2"/>
      <rect id="Rectangle_940_copy_19-25" data-name="Rectangle 940 copy 19" class="cls-1" x="1440" y="58" width="60" height="2"/>
      <text id="back-25" data-name="back" class="cls-2" transform="translate(1470.412 36.446) scale(1.386 1.387)"><tspan x="0">back</tspan></text>
    </g>
    <g id="Back_2_copy_24" data-name="Back 2 copy 24">
      <rect id="Rectangle_940_copy_15-26" data-name="Rectangle 940 copy 15" class="cls-1" x="1559" width="1" height="60"/>
      <rect id="Rectangle_940_copy_18-26" data-name="Rectangle 940 copy 18" class="cls-1" x="1500" width="1" height="60"/>
      <rect id="Rectangle_940_copy_16-26" data-name="Rectangle 940 copy 16" class="cls-1" x="1500" width="60" height="2"/>
      <rect id="Rectangle_940_copy_19-26" data-name="Rectangle 940 copy 19" class="cls-1" x="1500" y="58" width="60" height="2"/>
      <text id="back-26" data-name="back" class="cls-2" transform="translate(1530.414 36.446) scale(1.386 1.387)"><tspan x="0">back</tspan></text>
    </g>
    <g id="Back_2_copy_23-12" data-name="Back 2 copy 23">
      <rect id="Rectangle_940_copy_15-27" data-name="Rectangle 940 copy 15" class="cls-1" x="1619" width="1" height="60"/>
      <rect id="Rectangle_940_copy_18-27" data-name="Rectangle 940 copy 18" class="cls-1" x="1560" width="1" height="60"/>
      <rect id="Rectangle_940_copy_16-27" data-name="Rectangle 940 copy 16" class="cls-1" x="1560" width="60" height="2"/>
      <rect id="Rectangle_940_copy_19-27" data-name="Rectangle 940 copy 19" class="cls-1" x="1560" y="58" width="60" height="2"/>
      <text id="back-27" data-name="back" class="cls-2" transform="translate(1590.412 36.446) scale(1.386 1.387)"><tspan x="0">back</tspan></text>
    </g>
    <g id="Back_2_copy_23-13" data-name="Back 2 copy 23">
      <rect id="Rectangle_940_copy_15-28" data-name="Rectangle 940 copy 15" class="cls-1" x="1679" width="1" height="60"/>
      <rect id="Rectangle_940_copy_18-28" data-name="Rectangle 940 copy 18" class="cls-1" x="1620" width="1" height="60"/>
      <rect id="Rectangle_940_copy_16-28" data-name="Rectangle 940 copy 16" class="cls-1" x="1620" width="60" height="2"/>
      <rect id="Rectangle_940_copy_19-28" data-name="Rectangle 940 copy 19" class="cls-1" x="1620" y="58" width="60" height="2"/>
      <text id="back-28" data-name="back" class="cls-2" transform="translate(1650.414 36.446) scale(1.386 1.387)"><tspan x="0">back</tspan></text>
    </g>
  </g>
  <g id="Group_9_copy_2" data-name="Group 9 copy 2">
    <g id="Back_2_copy_19-3" data-name="Back 2 copy 19">
      <rect id="Rectangle_940_copy_15-29" data-name="Rectangle 940 copy 15" class="cls-1" x="1739" width="1" height="60"/>
      <rect id="Rectangle_940_copy_18-29" data-name="Rectangle 940 copy 18" class="cls-1" x="1680" width="1" height="60"/>
      <rect id="Rectangle_940_copy_16-29" data-name="Rectangle 940 copy 16" class="cls-1" x="1680" width="60" height="2"/>
      <rect id="Rectangle_940_copy_19-29" data-name="Rectangle 940 copy 19" class="cls-1" x="1680" y="58" width="60" height="2"/>
      <text id="back-29" data-name="back" class="cls-2" transform="translate(1710.412 36.446) scale(1.386 1.387)"><tspan x="0">back</tspan></text>
    </g>
    <g id="Back_2_copy_20-3" data-name="Back 2 copy 20">
      <rect id="Rectangle_940_copy_15-30" data-name="Rectangle 940 copy 15" class="cls-1" x="1799" width="1" height="60"/>
      <rect id="Rectangle_940_copy_18-30" data-name="Rectangle 940 copy 18" class="cls-1" x="1740" width="1" height="60"/>
      <rect id="Rectangle_940_copy_16-30" data-name="Rectangle 940 copy 16" class="cls-1" x="1740" width="60" height="2"/>
      <rect id="Rectangle_940_copy_19-30" data-name="Rectangle 940 copy 19" class="cls-1" x="1740" y="58" width="60" height="2"/>
      <text id="back-30" data-name="back" class="cls-2" transform="translate(1770.413 36.446) scale(1.386 1.387)"><tspan x="0">back</tspan></text>
    </g>
    <g id="Back_2_copy_21-5" data-name="Back 2 copy 21">
      <rect id="Rectangle_940_copy_15-31" data-name="Rectangle 940 copy 15" class="cls-1" x="1859" width="1" height="60"/>
      <rect id="Rectangle_940_copy_18-31" data-name="Rectangle 940 copy 18" class="cls-1" x="1800" width="1" height="60"/>
      <rect id="Rectangle_940_copy_16-31" data-name="Rectangle 940 copy 16" class="cls-1" x="1800" width="60" height="2"/>
      <rect id="Rectangle_940_copy_19-31" data-name="Rectangle 940 copy 19" class="cls-1" x="1800" y="58" width="60" height="2"/>
      <text id="back-31" data-name="back" class="cls-2" transform="translate(1830.412 36.446) scale(1.386 1.387)"><tspan x="0">back</tspan></text>
    </g>
    <g id="Back_2_copy_21-6" data-name="Back 2 copy 21">
      <rect id="Rectangle_940_copy_15-32" data-name="Rectangle 940 copy 15" class="cls-1" x="1919" width="1" height="60"/>
      <rect id="Rectangle_940_copy_18-32" data-name="Rectangle 940 copy 18" class="cls-1" x="1860" width="1" height="60"/>
      <rect id="Rectangle_940_copy_16-32" data-name="Rectangle 940 copy 16" class="cls-1" x="1860" width="60" height="2"/>
      <rect id="Rectangle_940_copy_19-32" data-name="Rectangle 940 copy 19" class="cls-1" x="1860" y="58" width="60" height="2"/>
      <text id="back-32" data-name="back" class="cls-2" transform="translate(1890.413 36.446) scale(1.386 1.387)"><tspan x="0">back</tspan></text>
    </g>
    <g id="Back_2_copy_22-7" data-name="Back 2 copy 22">
      <rect id="Rectangle_940_copy_15-33" data-name="Rectangle 940 copy 15" class="cls-1" x="1979" width="1" height="60"/>
      <rect id="Rectangle_940_copy_18-33" data-name="Rectangle 940 copy 18" class="cls-1" x="1920" width="1" height="60"/>
      <rect id="Rectangle_940_copy_16-33" data-name="Rectangle 940 copy 16" class="cls-1" x="1920" width="60" height="2"/>
      <rect id="Rectangle_940_copy_19-33" data-name="Rectangle 940 copy 19" class="cls-1" x="1920" y="58" width="60" height="2"/>
      <text id="back-33" data-name="back" class="cls-2" transform="translate(1950.412 36.446) scale(1.386 1.387)"><tspan x="0">back</tspan></text>
    </g>
    <g id="Back_2_copy_22-8" data-name="Back 2 copy 22">
      <rect id="Rectangle_940_copy_15-34" data-name="Rectangle 940 copy 15" class="cls-1" x="2039" width="1" height="60"/>
      <rect id="Rectangle_940_copy_18-34" data-name="Rectangle 940 copy 18" class="cls-1" x="1980" width="1" height="60"/>
      <rect id="Rectangle_940_copy_16-34" data-name="Rectangle 940 copy 16" class="cls-1" x="1980" width="60" height="2"/>
      <rect id="Rectangle_940_copy_19-34" data-name="Rectangle 940 copy 19" class="cls-1" x="1980" y="58" width="60" height="2"/>
      <text id="back-34" data-name="back" class="cls-2" transform="translate(2010.413 36.446) scale(1.386 1.387)"><tspan x="0">back</tspan></text>
    </g>
    <g id="Back_2_copy_22-9" data-name="Back 2 copy 22">
      <rect id="Rectangle_940_copy_15-35" data-name="Rectangle 940 copy 15" class="cls-1" x="2099" width="1" height="60"/>
      <rect id="Rectangle_940_copy_18-35" data-name="Rectangle 940 copy 18" class="cls-1" x="2040" width="1" height="60"/>
      <rect id="Rectangle_940_copy_16-35" data-name="Rectangle 940 copy 16" class="cls-1" x="2040" width="60" height="2"/>
      <rect id="Rectangle_940_copy_19-35" data-name="Rectangle 940 copy 19" class="cls-1" x="2040" y="58" width="60" height="2"/>
      <text id="back-35" data-name="back" class="cls-2" transform="translate(2070.412 36.446) scale(1.386 1.387)"><tspan x="0">back</tspan></text>
    </g>
    <g id="Back_2_copy_23-14" data-name="Back 2 copy 23">
      <rect id="Rectangle_940_copy_15-36" data-name="Rectangle 940 copy 15" class="cls-1" x="2159" width="1" height="60"/>
      <rect id="Rectangle_940_copy_18-36" data-name="Rectangle 940 copy 18" class="cls-1" x="2100" width="1" height="60"/>
      <rect id="Rectangle_940_copy_16-36" data-name="Rectangle 940 copy 16" class="cls-1" x="2100" width="60" height="2"/>
      <rect id="Rectangle_940_copy_19-36" data-name="Rectangle 940 copy 19" class="cls-1" x="2100" y="58" width="60" height="2"/>
      <text id="back-36" data-name="back" class="cls-2" transform="translate(2130.413 36.446) scale(1.386 1.387)"><tspan x="0">back</tspan></text>
    </g>
    <g id="Back_2_copy_23-15" data-name="Back 2 copy 23">
      <rect id="Rectangle_940_copy_15-37" data-name="Rectangle 940 copy 15" class="cls-1" x="2219" width="1" height="60"/>
      <rect id="Rectangle_940_copy_18-37" data-name="Rectangle 940 copy 18" class="cls-1" x="2160" width="1" height="60"/>
      <rect id="Rectangle_940_copy_16-37" data-name="Rectangle 940 copy 16" class="cls-1" x="2160" width="60" height="2"/>
      <rect id="Rectangle_940_copy_19-37" data-name="Rectangle 940 copy 19" class="cls-1" x="2160" y="58" width="60" height="2"/>
      <text id="back-37" data-name="back" class="cls-2" transform="translate(2190.412 36.446) scale(1.386 1.387)"><tspan x="0">back</tspan></text>
    </g>
    <g id="Back_2_copy_23-16" data-name="Back 2 copy 23">
      <rect id="Rectangle_940_copy_15-38" data-name="Rectangle 940 copy 15" class="cls-1" x="2279" width="1" height="60"/>
      <rect id="Rectangle_940_copy_18-38" data-name="Rectangle 940 copy 18" class="cls-1" x="2220" width="1" height="60"/>
      <rect id="Rectangle_940_copy_16-38" data-name="Rectangle 940 copy 16" class="cls-1" x="2220" width="60" height="2"/>
      <rect id="Rectangle_940_copy_19-38" data-name="Rectangle 940 copy 19" class="cls-1" x="2220" y="58" width="60" height="2"/>
      <text id="back-38" data-name="back" class="cls-2" transform="translate(2250.413 36.446) scale(1.386 1.387)"><tspan x="0">back</tspan></text>
    </g>
    <g id="Back_2_copy_23-17" data-name="Back 2 copy 23">
      <rect id="Rectangle_940_copy_15-39" data-name="Rectangle 940 copy 15" class="cls-1" x="2339" width="1" height="60"/>
      <rect id="Rectangle_940_copy_18-39" data-name="Rectangle 940 copy 18" class="cls-1" x="2280" width="1" height="60"/>
      <rect id="Rectangle_940_copy_16-39" data-name="Rectangle 940 copy 16" class="cls-1" x="2280" width="60" height="2"/>
      <rect id="Rectangle_940_copy_19-39" data-name="Rectangle 940 copy 19" class="cls-1" x="2280" y="58" width="60" height="2"/>
      <text id="back-39" data-name="back" class="cls-2" transform="translate(2310.412 36.446) scale(1.386 1.387)"><tspan x="0">back</tspan></text>
    </g>
    <g id="Back_2_copy_23-18" data-name="Back 2 copy 23">
      <rect id="Rectangle_940_copy_15-40" data-name="Rectangle 940 copy 15" class="cls-1" x="2399" width="1" height="60"/>
      <rect id="Rectangle_940_copy_18-40" data-name="Rectangle 940 copy 18" class="cls-1" x="2340" width="1" height="60"/>
      <rect id="Rectangle_940_copy_16-40" data-name="Rectangle 940 copy 16" class="cls-1" x="2340" width="60" height="2"/>
      <rect id="Rectangle_940_copy_19-40" data-name="Rectangle 940 copy 19" class="cls-1" x="2340" y="58" width="60" height="2"/>
      <text id="back-40" data-name="back" class="cls-2" transform="translate(2370.413 36.446) scale(1.386 1.387)"><tspan x="0">back</tspan></text>
    </g>
    <g id="Back_2_copy_23-19" data-name="Back 2 copy 23">
      <rect id="Rectangle_940_copy_15-41" data-name="Rectangle 940 copy 15" class="cls-1" x="2459" width="1" height="60"/>
      <rect id="Rectangle_940_copy_18-41" data-name="Rectangle 940 copy 18" class="cls-1" x="2400" width="1" height="60"/>
      <rect id="Rectangle_940_copy_16-41" data-name="Rectangle 940 copy 16" class="cls-1" x="2400" width="60" height="2"/>
      <rect id="Rectangle_940_copy_19-41" data-name="Rectangle 940 copy 19" class="cls-1" x="2400" y="58" width="60" height="2"/>
      <text id="back-41" data-name="back" class="cls-2" transform="translate(2430.411 36.446) scale(1.386 1.387)"><tspan x="0">back</tspan></text>
    </g>
    <g id="Back_2_copy_23-20" data-name="Back 2 copy 23">
      <rect id="Rectangle_940_copy_15-42" data-name="Rectangle 940 copy 15" class="cls-1" x="2519" width="1" height="60"/>
      <rect id="Rectangle_940_copy_18-42" data-name="Rectangle 940 copy 18" class="cls-1" x="2460" width="1" height="60"/>
      <rect id="Rectangle_940_copy_16-42" data-name="Rectangle 940 copy 16" class="cls-1" x="2460" width="60" height="2"/>
      <rect id="Rectangle_940_copy_19-42" data-name="Rectangle 940 copy 19" class="cls-1" x="2460" y="58" width="60" height="2"/>
      <text id="back-42" data-name="back" class="cls-2" transform="translate(2490.413 36.446) scale(1.386 1.387)"><tspan x="0">back</tspan></text>
    </g>
  </g>
  <g id="Box_for_Bonus" data-name="Box for Bonus">
    <rect class="cls-3" x="1381" y="2" width="58" height="56"/>
    <text id="BONUS_copy" data-name="BONUS copy" class="cls-4" transform="translate(1410.809 17.816) scale(1.285 1.285)"><tspan x="0">BONUS</tspan></text>
    <text id="_copy" data-name="+ copy" class="cls-4" transform="translate(1410.809 29.867) scale(1.285 1.285)"><tspan x="0">+</tspan></text>
    <text id="_1x_Free_Spins_copy" data-name="1x Free Spins copy" class="cls-5" transform="translate(1410.809 40.065) scale(1.285 1.285)"><tspan x="0">1x</tspan><tspan x="0" dy="9.375">Free Spins</tspan></text>
  </g>
  <g id="Box_for_Bonus_copy" data-name="Box for Bonus copy">
    <rect class="cls-3" x="1741" y="2" width="58" height="56"/>
    <text id="BONUS_copy-2" data-name="BONUS copy" class="cls-4" transform="translate(1770.809 17.816) scale(1.285 1.285)"><tspan x="0">BONUS</tspan></text>
    <text id="_copy-2" data-name="+ copy" class="cls-4" transform="translate(1770.809 29.867) scale(1.285 1.285)"><tspan x="0">+</tspan></text>
    <text id="_1x_Free_Spins_copy-2" data-name="1x Free Spins copy" class="cls-5" transform="translate(1770.809 40.065) scale(1.285 1.285)"><tspan x="0">1x</tspan><tspan x="0" dy="9.375">Free Spins</tspan></text>
  </g>
  <g id="Box_for_Bonus_copy_4" data-name="Box for Bonus copy 4">
    <rect class="cls-3" x="2101" y="2" width="58" height="56"/>
    <text id="BONUS_copy-3" data-name="BONUS copy" class="cls-4" transform="translate(2130.809 17.816) scale(1.285 1.285)"><tspan x="0">BONUS</tspan></text>
    <text id="_copy-3" data-name="+ copy" class="cls-4" transform="translate(2130.809 29.867) scale(1.285 1.285)"><tspan x="0">+</tspan></text>
    <text id="_1x_Free_Spins_copy-3" data-name="1x Free Spins copy" class="cls-5" transform="translate(2130.809 40.065) scale(1.285 1.285)"><tspan x="0">1x</tspan><tspan x="0" dy="9.375">Free Spins</tspan></text>
  </g>
  <g id="Box_for_Bonus_copy_5" data-name="Box for Bonus copy 5">
    <rect class="cls-3" x="2461" y="2" width="58" height="56"/>
    <text id="BONUS_copy-4" data-name="BONUS copy" class="cls-4" transform="translate(2490.808 17.816) scale(1.285 1.285)"><tspan x="0">BONUS</tspan></text>
    <text id="_copy-4" data-name="+ copy" class="cls-4" transform="translate(2490.808 29.867) scale(1.285 1.285)"><tspan x="0">+</tspan></text>
    <text id="_1x_Free_Spins_copy-4" data-name="1x Free Spins copy" class="cls-5" transform="translate(2490.808 40.065) scale(1.285 1.285)"><tspan x="0">1x</tspan><tspan x="0" dy="9.375">Free Spins</tspan></text>
  </g>
  <g id="Box_for_Bonus_copy_2" data-name="Box for Bonus copy 2">
    <rect class="cls-3" x="661" y="2" width="58" height="56"/>
    <text id="BONUS_copy-5" data-name="BONUS copy" class="cls-4" transform="translate(690.81 17.816) scale(1.285 1.285)"><tspan x="0">BONUS</tspan></text>
    <text id="_" data-name="+" class="cls-4" transform="translate(690.81 29.867) scale(1.285 1.285)"><tspan x="0">+</tspan></text>
    <text id="_1.5x_Free_Spins" data-name="1.5x Free Spins" class="cls-5" transform="translate(690.81 40.065) scale(1.285 1.285)"><tspan x="0">1.5x</tspan><tspan x="0" dy="9.375">Free Spins</tspan></text>
  </g>
  <g id="Box_for_Bonus_copy_3" data-name="Box for Bonus copy 3">
    <rect class="cls-3" x="301" y="2" width="58" height="56"/>
    <text id="BONUS_copy-6" data-name="BONUS copy" class="cls-4" transform="translate(330.808 17.816) scale(1.285 1.285)"><tspan x="0">BONUS</tspan></text>
    <text id="_copy-5" data-name="+ copy" class="cls-4" transform="translate(330.808 29.867) scale(1.285 1.285)"><tspan x="0">+</tspan></text>
    <text id="_2x_Free_Spins" data-name="2x Free Spins" class="cls-5" transform="translate(330.808 40.065) scale(1.285 1.285)"><tspan x="0">2x</tspan><tspan x="0" dy="9.375">Free Spins</tspan></text>
  </g>
  <g id="Box_for_Bonus_copy_2-2" data-name="Box for Bonus copy 2">
    <rect class="cls-3" x="1021" y="2" width="58" height="56"/>
    <text id="BONUS_copy-7" data-name="BONUS copy" class="cls-4" transform="translate(1050.81 17.816) scale(1.285 1.285)"><tspan x="0">BONUS</tspan></text>
    <text id="_copy-6" data-name="+ copy" class="cls-4" transform="translate(1050.81 29.867) scale(1.285 1.285)"><tspan x="0">+</tspan></text>
    <text id="_1.5x_Free_Spins-2" data-name="1.5x Free Spins" class="cls-5" transform="translate(1050.81 40.065) scale(1.285 1.285)"><tspan x="0">1.5x</tspan><tspan x="0" dy="9.375">Free Spins</tspan></text>
  </g>
</svg>
